%YAML 1.1
%TAG !u! tag:unity3d.com,2011:
--- !u!1001 &8588601501471928016
PrefabInstance:
  m_ObjectHideFlags: 0
  serializedVersion: 2
  m_Modification:
    serializedVersion: 2
    m_TransformParent: {fileID: 0}
    m_Modifications:
    - target: {fileID: 135208009064936997, guid: fffb4aa7ed4c24f52a217fa50fc6fd15, type: 3}
      propertyPath: type
      value: 3
      objectReference: {fileID: 0}
    - target: {fileID: 135208009064936997, guid: fffb4aa7ed4c24f52a217fa50fc6fd15, type: 3}
      propertyPath: maxHp
      value: 40
      objectReference: {fileID: 0}
    - target: {fileID: 135208009064936997, guid: fffb4aa7ed4c24f52a217fa50fc6fd15, type: 3}
      propertyPath: spawnCount
      value: 1
      objectReference: {fileID: 0}
    - target: {fileID: 135208009064936997, guid: fffb4aa7ed4c24f52a217fa50fc6fd15, type: 3}
      propertyPath: unitPrefab
      value: 
      objectReference: {fileID: 7263199129852253790, guid: e061a82a216bcb6a698f20523242885a, type: 3}
    - target: {fileID: 135208009064936997, guid: fffb4aa7ed4c24f52a217fa50fc6fd15, type: 3}
      propertyPath: spawnDuration
      value: 10
      objectReference: {fileID: 0}
    - target: {fileID: 135208009064936997, guid: fffb4aa7ed4c24f52a217fa50fc6fd15, type: 3}
      propertyPath: spawnRange.max
      value: 2
      objectReference: {fileID: 0}
    - target: {fileID: 135208009064936997, guid: fffb4aa7ed4c24f52a217fa50fc6fd15, type: 3}
      propertyPath: spawnRange.min
      value: 2
      objectReference: {fileID: 0}
    - target: {fileID: 3635247021446583098, guid: fffb4aa7ed4c24f52a217fa50fc6fd15, type: 3}
      propertyPath: m_Name
      value: Enemy Building 1
      objectReference: {fileID: 0}
    - target: {fileID: 3635247021446583102, guid: fffb4aa7ed4c24f52a217fa50fc6fd15, type: 3}
      propertyPath: m_RootOrder
      value: 14
      objectReference: {fileID: 0}
    - target: {fileID: 3635247021446583102, guid: fffb4aa7ed4c24f52a217fa50fc6fd15, type: 3}
      propertyPath: m_LocalScale.z
      value: 1
      objectReference: {fileID: 0}
    - target: {fileID: 3635247021446583102, guid: fffb4aa7ed4c24f52a217fa50fc6fd15, type: 3}
      propertyPath: m_LocalPosition.x
      value: 20
      objectReference: {fileID: 0}
    - target: {fileID: 3635247021446583102, guid: fffb4aa7ed4c24f52a217fa50fc6fd15, type: 3}
      propertyPath: m_LocalPosition.y
      value: 4
      objectReference: {fileID: 0}
    - target: {fileID: 3635247021446583102, guid: fffb4aa7ed4c24f52a217fa50fc6fd15, type: 3}
      propertyPath: m_LocalPosition.z
      value: 0
      objectReference: {fileID: 0}
    - target: {fileID: 3635247021446583102, guid: fffb4aa7ed4c24f52a217fa50fc6fd15, type: 3}
      propertyPath: m_LocalRotation.w
      value: 1
      objectReference: {fileID: 0}
    - target: {fileID: 3635247021446583102, guid: fffb4aa7ed4c24f52a217fa50fc6fd15, type: 3}
      propertyPath: m_LocalRotation.x
      value: 0
      objectReference: {fileID: 0}
    - target: {fileID: 3635247021446583102, guid: fffb4aa7ed4c24f52a217fa50fc6fd15, type: 3}
      propertyPath: m_LocalRotation.y
      value: 0
      objectReference: {fileID: 0}
    - target: {fileID: 3635247021446583102, guid: fffb4aa7ed4c24f52a217fa50fc6fd15, type: 3}
      propertyPath: m_LocalRotation.z
      value: 0
      objectReference: {fileID: 0}
    - target: {fileID: 3635247021446583102, guid: fffb4aa7ed4c24f52a217fa50fc6fd15, type: 3}
      propertyPath: m_LocalEulerAnglesHint.x
      value: 0
      objectReference: {fileID: 0}
    - target: {fileID: 3635247021446583102, guid: fffb4aa7ed4c24f52a217fa50fc6fd15, type: 3}
      propertyPath: m_LocalEulerAnglesHint.y
      value: 0
      objectReference: {fileID: 0}
    - target: {fileID: 3635247021446583102, guid: fffb4aa7ed4c24f52a217fa50fc6fd15, type: 3}
      propertyPath: m_LocalEulerAnglesHint.z
      value: 0
      objectReference: {fileID: 0}
    m_RemovedComponents: []
    m_AddedGameObjects: []
  m_SourcePrefab: {fileID: 100100000, guid: fffb4aa7ed4c24f52a217fa50fc6fd15, type: 3}
