%YAML 1.1
%TAG !u! tag:unity3d.com,2011:
--- !u!1001 &8703801802992198963
PrefabInstance:
  m_ObjectHideFlags: 0
  serializedVersion: 2
  m_Modification:
    serializedVersion: 2
    m_TransformParent: {fileID: 0}
    m_Modifications:
    - target: {fileID: 135208009064936997, guid: 694dbd4a170104188addd6d19ea8636d, type: 3}
      propertyPath: hp
      value: 40
      objectReference: {fileID: 0}
    - target: {fileID: 135208009064936997, guid: 694dbd4a170104188addd6d19ea8636d, type: 3}
      propertyPath: type
      value: 4
      objectReference: {fileID: 0}
    - target: {fileID: 135208009064936997, guid: 694dbd4a170104188addd6d19ea8636d, type: 3}
      propertyPath: maxHp
      value: 40
      objectReference: {fileID: 0}
    - target: {fileID: 135208009064936997, guid: 694dbd4a170104188addd6d19ea8636d, type: 3}
      propertyPath: rigid
      value: 
      objectReference: {fileID: -2761428687711297730}
    - target: {fileID: 135208009064936997, guid: 694dbd4a170104188addd6d19ea8636d, type: 3}
      propertyPath: spawnCount
      value: 1
      objectReference: {fileID: 0}
    - target: {fileID: 135208009064936997, guid: 694dbd4a170104188addd6d19ea8636d, type: 3}
      propertyPath: unitPrefab
      value: 
      objectReference: {fileID: 250037785894191887, guid: 1a9bfdbbe6a2eea4dac4f6e4e8e341c5, type: 3}
    - target: {fileID: 135208009064936997, guid: 694dbd4a170104188addd6d19ea8636d, type: 3}
      propertyPath: hpRegenRate
      value: 0.5
      objectReference: {fileID: 0}
    - target: {fileID: 135208009064936997, guid: 694dbd4a170104188addd6d19ea8636d, type: 3}
      propertyPath: spawnDuration
      value: 10
      objectReference: {fileID: 0}
    - target: {fileID: 135208009064936997, guid: 694dbd4a170104188addd6d19ea8636d, type: 3}
      propertyPath: spawnRange.max
      value: 2
      objectReference: {fileID: 0}
    - target: {fileID: 135208009064936997, guid: 694dbd4a170104188addd6d19ea8636d, type: 3}
      propertyPath: spawnRange.min
      value: 2
      objectReference: {fileID: 0}
    - target: {fileID: 3635247021446583098, guid: 694dbd4a170104188addd6d19ea8636d, type: 3}
      propertyPath: m_Name
      value: Player Building 2
      objectReference: {fileID: 0}
    - target: {fileID: 3635247021446583102, guid: 694dbd4a170104188addd6d19ea8636d, type: 3}
      propertyPath: m_RootOrder
      value: 0
      objectReference: {fileID: 0}
    - target: {fileID: 3635247021446583102, guid: 694dbd4a170104188addd6d19ea8636d, type: 3}
      propertyPath: m_LocalScale.z
      value: 1
      objectReference: {fileID: 0}
    - target: {fileID: 3635247021446583102, guid: 694dbd4a170104188addd6d19ea8636d, type: 3}
      propertyPath: m_LocalPosition.x
      value: -20
      objectReference: {fileID: 0}
    - target: {fileID: 3635247021446583102, guid: 694dbd4a170104188addd6d19ea8636d, type: 3}
      propertyPath: m_LocalPosition.y
      value: 0
      objectReference: {fileID: 0}
    - target: {fileID: 3635247021446583102, guid: 694dbd4a170104188addd6d19ea8636d, type: 3}
      propertyPath: m_LocalPosition.z
      value: 0
      objectReference: {fileID: 0}
    - target: {fileID: 3635247021446583102, guid: 694dbd4a170104188addd6d19ea8636d, type: 3}
      propertyPath: m_LocalRotation.w
      value: 1
      objectReference: {fileID: 0}
    - target: {fileID: 3635247021446583102, guid: 694dbd4a170104188addd6d19ea8636d, type: 3}
      propertyPath: m_LocalRotation.x
      value: 0
      objectReference: {fileID: 0}
    - target: {fileID: 3635247021446583102, guid: 694dbd4a170104188addd6d19ea8636d, type: 3}
      propertyPath: m_LocalRotation.y
      value: 0
      objectReference: {fileID: 0}
    - target: {fileID: 3635247021446583102, guid: 694dbd4a170104188addd6d19ea8636d, type: 3}
      propertyPath: m_LocalRotation.z
      value: 0
      objectReference: {fileID: 0}
    - target: {fileID: 3635247021446583102, guid: 694dbd4a170104188addd6d19ea8636d, type: 3}
      propertyPath: m_LocalEulerAnglesHint.x
      value: 0
      objectReference: {fileID: 0}
    - target: {fileID: 3635247021446583102, guid: 694dbd4a170104188addd6d19ea8636d, type: 3}
      propertyPath: m_LocalEulerAnglesHint.y
      value: 0
      objectReference: {fileID: 0}
    - target: {fileID: 3635247021446583102, guid: 694dbd4a170104188addd6d19ea8636d, type: 3}
      propertyPath: m_LocalEulerAnglesHint.z
      value: 0
      objectReference: {fileID: 0}
    - target: {fileID: 3635247021446583103, guid: 694dbd4a170104188addd6d19ea8636d, type: 3}
      propertyPath: m_Color.b
      value: 0.5019608
      objectReference: {fileID: 0}
    m_RemovedComponents: []
    m_AddedGameObjects: []
  m_SourcePrefab: {fileID: 100100000, guid: 694dbd4a170104188addd6d19ea8636d, type: 3}
--- !u!1 &5384299953807947273 stripped
GameObject:
  m_CorrespondingSourceObject: {fileID: 3635247021446583098, guid: 694dbd4a170104188addd6d19ea8636d, type: 3}
  m_PrefabInstance: {fileID: 8703801802992198963}
  m_PrefabAsset: {fileID: 0}
--- !u!50 &-2761428687711297730
Rigidbody2D:
  serializedVersion: 4
  m_ObjectHideFlags: 0
  m_CorrespondingSourceObject: {fileID: 0}
  m_PrefabInstance: {fileID: 0}
  m_PrefabAsset: {fileID: 0}
  m_GameObject: {fileID: 5384299953807947273}
  m_BodyType: 0
  m_Simulated: 1
  m_UseFullKinematicContacts: 0
  m_UseAutoMass: 1
  m_Mass: 2.25
  m_LinearDrag: 10
  m_AngularDrag: 0.05
  m_GravityScale: 0
  m_Material: {fileID: 0}
  m_Interpolate: 0
  m_SleepingMode: 1
  m_CollisionDetection: 0
  m_Constraints: 7
