%YAML 1.1
%TAG !u! tag:unity3d.com,2011:
--- !u!1001 &5521671070029382088
PrefabInstance:
  m_ObjectHideFlags: 0
  serializedVersion: 2
  m_Modification:
    serializedVersion: 2
    m_TransformParent: {fileID: 0}
    m_Modifications:
    - target: {fileID: 3489307982461805232, guid: bc15f98e7c1381247af7839b68ff69ea, type: 3}
      propertyPath: m_Name
      value: Player Force Field
      objectReference: {fileID: 0}
    - target: {fileID: 3489307982461805232, guid: bc15f98e7c1381247af7839b68ff69ea, type: 3}
      propertyPath: m_Layer
      value: 11
      objectReference: {fileID: 0}
    - target: {fileID: 3489307982461805238, guid: bc15f98e7c1381247af7839b68ff69ea, type: 3}
      propertyPath: playerIndicesIAffect.Array.size
      value: 1
      objectReference: {fileID: 0}
    - target: {fileID: 3489307982461805238, guid: bc15f98e7c1381247af7839b68ff69ea, type: 3}
      propertyPath: playerIndicesIAffect.Array.data[0]
      value: 1
      objectReference: {fileID: 0}
    - target: {fileID: 3489307982461805239, guid: bc15f98e7c1381247af7839b68ff69ea, type: 3}
      propertyPath: m_RootOrder
      value: 0
      objectReference: {fileID: 0}
    - target: {fileID: 3489307982461805239, guid: bc15f98e7c1381247af7839b68ff69ea, type: 3}
      propertyPath: m_LocalPosition.x
      value: 0
      objectReference: {fileID: 0}
    - target: {fileID: 3489307982461805239, guid: bc15f98e7c1381247af7839b68ff69ea, type: 3}
      propertyPath: m_LocalPosition.y
      value: 0
      objectReference: {fileID: 0}
    - target: {fileID: 3489307982461805239, guid: bc15f98e7c1381247af7839b68ff69ea, type: 3}
      propertyPath: m_LocalPosition.z
      value: 0
      objectReference: {fileID: 0}
    - target: {fileID: 3489307982461805239, guid: bc15f98e7c1381247af7839b68ff69ea, type: 3}
      propertyPath: m_LocalRotation.w
      value: 1
      objectReference: {fileID: 0}
    - target: {fileID: 3489307982461805239, guid: bc15f98e7c1381247af7839b68ff69ea, type: 3}
      propertyPath: m_LocalRotation.x
      value: 0
      objectReference: {fileID: 0}
    - target: {fileID: 3489307982461805239, guid: bc15f98e7c1381247af7839b68ff69ea, type: 3}
      propertyPath: m_LocalRotation.y
      value: 0
      objectReference: {fileID: 0}
    - target: {fileID: 3489307982461805239, guid: bc15f98e7c1381247af7839b68ff69ea, type: 3}
      propertyPath: m_LocalRotation.z
      value: 0
      objectReference: {fileID: 0}
    - target: {fileID: 3489307982461805239, guid: bc15f98e7c1381247af7839b68ff69ea, type: 3}
      propertyPath: m_LocalEulerAnglesHint.x
      value: 0
      objectReference: {fileID: 0}
    - target: {fileID: 3489307982461805239, guid: bc15f98e7c1381247af7839b68ff69ea, type: 3}
      propertyPath: m_LocalEulerAnglesHint.y
      value: 0
      objectReference: {fileID: 0}
    - target: {fileID: 3489307982461805239, guid: bc15f98e7c1381247af7839b68ff69ea, type: 3}
      propertyPath: m_LocalEulerAnglesHint.z
      value: 0
      objectReference: {fileID: 0}
    m_RemovedComponents: []
    m_AddedGameObjects: []
  m_SourcePrefab: {fileID: 100100000, guid: bc15f98e7c1381247af7839b68ff69ea, type: 3}
