%YAML 1.1
%TAG !u! tag:unity3d.com,2011:
--- !u!1001 &6569611918256946223
PrefabInstance:
  m_ObjectHideFlags: 0
  serializedVersion: 2
  m_Modification:
    serializedVersion: 2
    m_TransformParent: {fileID: 0}
    m_Modifications:
    - target: {fileID: 7321121989298176704, guid: 1820e88606c0455e4bcbcad38b3a83f1, type: 3}
      propertyPath: m_IsActive
      value: 0
      objectReference: {fileID: 0}
    - target: {fileID: 7321121989849755145, guid: 1820e88606c0455e4bcbcad38b3a83f1, type: 3}
      propertyPath: m_RootOrder
      value: 0
      objectReference: {fileID: 0}
    - target: {fileID: 7321121989849755145, guid: 1820e88606c0455e4bcbcad38b3a83f1, type: 3}
      propertyPath: m_LocalPosition.x
      value: 0
      objectReference: {fileID: 0}
    - target: {fileID: 7321121989849755145, guid: 1820e88606c0455e4bcbcad38b3a83f1, type: 3}
      propertyPath: m_LocalPosition.y
      value: 0
      objectReference: {fileID: 0}
    - target: {fileID: 7321121989849755145, guid: 1820e88606c0455e4bcbcad38b3a83f1, type: 3}
      propertyPath: m_LocalPosition.z
      value: 0
      objectReference: {fileID: 0}
    - target: {fileID: 7321121989849755145, guid: 1820e88606c0455e4bcbcad38b3a83f1, type: 3}
      propertyPath: m_LocalRotation.w
      value: 1
      objectReference: {fileID: 0}
    - target: {fileID: 7321121989849755145, guid: 1820e88606c0455e4bcbcad38b3a83f1, type: 3}
      propertyPath: m_LocalRotation.x
      value: -0
      objectReference: {fileID: 0}
    - target: {fileID: 7321121989849755145, guid: 1820e88606c0455e4bcbcad38b3a83f1, type: 3}
      propertyPath: m_LocalRotation.y
      value: -0
      objectReference: {fileID: 0}
    - target: {fileID: 7321121989849755145, guid: 1820e88606c0455e4bcbcad38b3a83f1, type: 3}
      propertyPath: m_LocalRotation.z
      value: -0
      objectReference: {fileID: 0}
    - target: {fileID: 7321121989849755145, guid: 1820e88606c0455e4bcbcad38b3a83f1, type: 3}
      propertyPath: m_LocalEulerAnglesHint.x
      value: 0
      objectReference: {fileID: 0}
    - target: {fileID: 7321121989849755145, guid: 1820e88606c0455e4bcbcad38b3a83f1, type: 3}
      propertyPath: m_LocalEulerAnglesHint.y
      value: 0
      objectReference: {fileID: 0}
    - target: {fileID: 7321121989849755145, guid: 1820e88606c0455e4bcbcad38b3a83f1, type: 3}
      propertyPath: m_LocalEulerAnglesHint.z
      value: 0
      objectReference: {fileID: 0}
    - target: {fileID: 7321121989849755149, guid: 1820e88606c0455e4bcbcad38b3a83f1, type: 3}
      propertyPath: m_Name
      value: Virtual Player 2
      objectReference: {fileID: 0}
    - target: {fileID: 7321121989849755191, guid: 1820e88606c0455e4bcbcad38b3a83f1, type: 3}
      propertyPath: units.Array.size
      value: 11
      objectReference: {fileID: 0}
    m_RemovedComponents:
    - {fileID: 7321121989849755191, guid: 1820e88606c0455e4bcbcad38b3a83f1, type: 3}
    m_AddedGameObjects: []
  m_SourcePrefab: {fileID: 100100000, guid: 1820e88606c0455e4bcbcad38b3a83f1, type: 3}
--- !u!1 &4517720184129786402 stripped
GameObject:
  m_CorrespondingSourceObject: {fileID: 7321121989849755149, guid: 1820e88606c0455e4bcbcad38b3a83f1, type: 3}
  m_PrefabInstance: {fileID: 6569611918256946223}
  m_PrefabAsset: {fileID: 0}
--- !u!114 &6414987551187536878
MonoBehaviour:
  m_ObjectHideFlags: 0
  m_CorrespondingSourceObject: {fileID: 0}
  m_PrefabInstance: {fileID: 0}
  m_PrefabAsset: {fileID: 0}
  m_GameObject: {fileID: 4517720184129786402}
  m_Enabled: 1
  m_EditorHideFlags: 0
  m_Script: {fileID: 11500000, guid: ecd3df05de0160e44b30b3172d0d8c5a, type: 3}
  m_Name: 
  m_EditorClassIdentifier: 
  handleMultipleInstances: 0
  persistant: 0
  cursor:
    trs: {fileID: 4517720184681397998}
    movementIndicatorLineRenderer: {fileID: 4517720184442530746}
    minMovemnetIndicatorPointSeparation: 0.25
    targetMovementIndicatorLength: 7
    previousPositions: []
  units:
  - {fileID: 0}
  - {fileID: 0}
  - {fileID: 0}
  buildings:
  - {fileID: 0}
  - {fileID: 0}
  - {fileID: 0}
  movementType: 0
  raceIndex: 0
  enemyPlayerIndices: 00
  enemyPlayers:
  - {fileID: 0}
  pullMultiplier: 1
  abilityCombinationInfos:
  - abilityIndices: 01
    chance: 1
    useTimeRange:
      min: 0.67
      max: 0.67
    abilityCombinationIndicesThatCantBeNext: 00030405
  - abilityIndices: 00
    chance: 1
    useTimeRange:
      min: 0.84
      max: 0.84
    abilityCombinationIndicesThatCantBeNext: 0103
  - abilityIndices: 02
    chance: 1
    useTimeRange:
      min: 0.01
      max: 0.01
    abilityCombinationIndicesThatCantBeNext: 
  - abilityIndices: 0001
    chance: 1
    useTimeRange:
      min: 0.67
      max: 0.67
    abilityCombinationIndicesThatCantBeNext: 00030405
  - abilityIndices: 0001
    chance: 1
    useTimeRange:
      min: 1.26
      max: 1.5
    abilityCombinationIndicesThatCantBeNext: 00030405
  - abilityIndices: 01
    chance: 1
    useTimeRange:
      min: 1.26
      max: 1.5
    abilityCombinationIndicesThatCantBeNext: 00030405
  maxPositionOffset: 0
  maxDistanceToDogdeBullets: 5
  enemyBuildingOffensiveWeight: 5
  buildingDefensiveWeight: 5
  differenceInBuildingTotalHealthFractionToDefend: 0.33333334
--- !u!120 &4517720184442530746 stripped
LineRenderer:
  m_CorrespondingSourceObject: {fileID: 7321121989671753621, guid: 1820e88606c0455e4bcbcad38b3a83f1, type: 3}
  m_PrefabInstance: {fileID: 6569611918256946223}
  m_PrefabAsset: {fileID: 0}
--- !u!4 &4517720184681397998 stripped
Transform:
  m_CorrespondingSourceObject: {fileID: 7321121989298176705, guid: 1820e88606c0455e4bcbcad38b3a83f1, type: 3}
  m_PrefabInstance: {fileID: 6569611918256946223}
  m_PrefabAsset: {fileID: 0}
