%YAML 1.1
%TAG !u! tag:unity3d.com,2011:
--- !u!1001 &5878531867535607627
PrefabInstance:
  m_ObjectHideFlags: 0
  serializedVersion: 2
  m_Modification:
    serializedVersion: 2
    m_TransformParent: {fileID: 0}
    m_Modifications:
    - target: {fileID: 2491920246232067630, guid: b2ddf7824a3ce397b8074fda5b0b653e, type: 3}
      propertyPath: m_Color.b
      value: 1
      objectReference: {fileID: 0}
    - target: {fileID: 2491920246232067630, guid: b2ddf7824a3ce397b8074fda5b0b653e, type: 3}
      propertyPath: m_Color.g
      value: 0
      objectReference: {fileID: 0}
    - target: {fileID: 2491920246232067630, guid: b2ddf7824a3ce397b8074fda5b0b653e, type: 3}
      propertyPath: m_Color.r
      value: 1
      objectReference: {fileID: 0}
    - target: {fileID: 6432102508681742981, guid: b2ddf7824a3ce397b8074fda5b0b653e, type: 3}
      propertyPath: m_RootOrder
      value: 0
      objectReference: {fileID: 0}
    - target: {fileID: 6432102508681742981, guid: b2ddf7824a3ce397b8074fda5b0b653e, type: 3}
      propertyPath: m_LocalScale.z
      value: 1
      objectReference: {fileID: 0}
    - target: {fileID: 6432102508681742981, guid: b2ddf7824a3ce397b8074fda5b0b653e, type: 3}
      propertyPath: m_LocalPosition.x
      value: 0
      objectReference: {fileID: 0}
    - target: {fileID: 6432102508681742981, guid: b2ddf7824a3ce397b8074fda5b0b653e, type: 3}
      propertyPath: m_LocalPosition.y
      value: 0
      objectReference: {fileID: 0}
    - target: {fileID: 6432102508681742981, guid: b2ddf7824a3ce397b8074fda5b0b653e, type: 3}
      propertyPath: m_LocalPosition.z
      value: 0
      objectReference: {fileID: 0}
    - target: {fileID: 6432102508681742981, guid: b2ddf7824a3ce397b8074fda5b0b653e, type: 3}
      propertyPath: m_LocalRotation.w
      value: 1
      objectReference: {fileID: 0}
    - target: {fileID: 6432102508681742981, guid: b2ddf7824a3ce397b8074fda5b0b653e, type: 3}
      propertyPath: m_LocalRotation.x
      value: 0
      objectReference: {fileID: 0}
    - target: {fileID: 6432102508681742981, guid: b2ddf7824a3ce397b8074fda5b0b653e, type: 3}
      propertyPath: m_LocalRotation.y
      value: 0
      objectReference: {fileID: 0}
    - target: {fileID: 6432102508681742981, guid: b2ddf7824a3ce397b8074fda5b0b653e, type: 3}
      propertyPath: m_LocalRotation.z
      value: 0
      objectReference: {fileID: 0}
    - target: {fileID: 6432102508681742981, guid: b2ddf7824a3ce397b8074fda5b0b653e, type: 3}
      propertyPath: m_LocalEulerAnglesHint.x
      value: 0
      objectReference: {fileID: 0}
    - target: {fileID: 6432102508681742981, guid: b2ddf7824a3ce397b8074fda5b0b653e, type: 3}
      propertyPath: m_LocalEulerAnglesHint.y
      value: 0
      objectReference: {fileID: 0}
    - target: {fileID: 6432102508681742981, guid: b2ddf7824a3ce397b8074fda5b0b653e, type: 3}
      propertyPath: m_LocalEulerAnglesHint.z
      value: 0
      objectReference: {fileID: 0}
    - target: {fileID: 6432102508681742982, guid: b2ddf7824a3ce397b8074fda5b0b653e, type: 3}
      propertyPath: lifetime
      value: 3
      objectReference: {fileID: 0}
    - target: {fileID: 6432102508681742982, guid: b2ddf7824a3ce397b8074fda5b0b653e, type: 3}
      propertyPath: moveSpeed
      value: 6
      objectReference: {fileID: 0}
    - target: {fileID: 6432102508681742982, guid: b2ddf7824a3ce397b8074fda5b0b653e, type: 3}
      propertyPath: prefabIndex
      value: 0
      objectReference: {fileID: 0}
    - target: {fileID: 6432102508681742982, guid: b2ddf7824a3ce397b8074fda5b0b653e, type: 3}
      propertyPath: maxHitsBeforeDespawn
      value: 2
      objectReference: {fileID: 0}
    - target: {fileID: 6432102508681742982, guid: b2ddf7824a3ce397b8074fda5b0b653e, type: 3}
      propertyPath: despawnOnHitDestructable
      value: 1
      objectReference: {fileID: 0}
    - target: {fileID: 6432102508681742982, guid: b2ddf7824a3ce397b8074fda5b0b653e, type: 3}
      propertyPath: despawnOnHitNonDestructable
      value: 1
      objectReference: {fileID: 0}
    - target: {fileID: 6432102508681742982, guid: b2ddf7824a3ce397b8074fda5b0b653e, type: 3}
      propertyPath: damageAmountOnHitDestructable
      value: 2
      objectReference: {fileID: 0}
    - target: {fileID: 6432102508681742983, guid: b2ddf7824a3ce397b8074fda5b0b653e, type: 3}
      propertyPath: m_Name
      value: Bullet 1
      objectReference: {fileID: 0}
    m_RemovedComponents: []
    m_AddedGameObjects: []
  m_SourcePrefab: {fileID: 100100000, guid: b2ddf7824a3ce397b8074fda5b0b653e, type: 3}
