%YAML 1.1
%TAG !u! tag:unity3d.com,2011:
--- !u!1 &86170399427601
GameObject:
  m_ObjectHideFlags: 0
  m_CorrespondingSourceObject: {fileID: 0}
  m_PrefabInstance: {fileID: 0}
  m_PrefabAsset: {fileID: 0}
  serializedVersion: 6
  m_Component:
  - component: {fileID: 6223720300597404478}
  - component: {fileID: 40030574791663452}
  m_Layer: 0
  m_Name: Object Pool
  m_TagString: Untagged
  m_Icon: {fileID: 0}
  m_NavMeshLayer: 0
  m_StaticEditorFlags: 0
  m_IsActive: 1
--- !u!4 &6223720300597404478
Transform:
  m_ObjectHideFlags: 0
  m_CorrespondingSourceObject: {fileID: 0}
  m_PrefabInstance: {fileID: 0}
  m_PrefabAsset: {fileID: 0}
  m_GameObject: {fileID: 86170399427601}
  m_LocalRotation: {x: 0, y: 0, z: 0, w: 1}
  m_LocalPosition: {x: 0, y: 0, z: 0}
  m_LocalScale: {x: 1, y: 1, z: 1}
  m_ConstrainProportionsScale: 0
  m_Children: []
  m_Father: {fileID: 0}
  m_RootOrder: 0
  m_LocalEulerAnglesHint: {x: 0, y: 0, z: 0}
--- !u!114 &40030574791663452
MonoBehaviour:
  m_ObjectHideFlags: 0
  m_CorrespondingSourceObject: {fileID: 0}
  m_PrefabInstance: {fileID: 0}
  m_PrefabAsset: {fileID: 0}
  m_GameObject: {fileID: 86170399427601}
  m_Enabled: 1
  m_EditorHideFlags: 0
  m_Script: {fileID: 11500000, guid: b9bd6048c8cfe0642873f693d7d19849, type: 3}
  m_Name: 
  m_EditorClassIdentifier: 
  handleMultipleInstances: 0
  persistant: 0
  preloadOnAwake: 1
  trs: {fileID: 6223720300597404478}
  spawnEntries:
  - prefab: {fileID: 637213929362804172, guid: 1075781f27e779c6792ab3f59a046d20, type: 3}
    trs: {fileID: 637213929362804174, guid: 1075781f27e779c6792ab3f59a046d20, type: 3}
    prefabIndex: 0
    preload: 0
  - prefab: {fileID: 6640437764362887644, guid: 22e87ebf67b56cbe4a435f037c6d1080, type: 3}
    trs: {fileID: 6640437764362887640, guid: 22e87ebf67b56cbe4a435f037c6d1080, type: 3}
    prefabIndex: 0
    preload: 0
  - prefab: {fileID: 4293007811972134029, guid: e061a82a216bcb6a698f20523242885a, type: 3}
    trs: {fileID: 4293007811972134025, guid: e061a82a216bcb6a698f20523242885a, type: 3}
    prefabIndex: 0
    preload: 0
  - prefab: {fileID: 7113511423602553893, guid: 138a5d5385d430246a96be3bae0f01a9, type: 3}
    trs: {fileID: 7113511423602553895, guid: 138a5d5385d430246a96be3bae0f01a9, type: 3}
    prefabIndex: 0
    preload: 0
  - prefab: {fileID: 6640437764362887644, guid: 3c7bf34204bdb74449eabfeff2a3b438, type: 3}
    trs: {fileID: 6640437764362887640, guid: 3c7bf34204bdb74449eabfeff2a3b438, type: 3}
    prefabIndex: 0
    preload: 0
  - prefab: {fileID: 6640437764362887644, guid: 42c4364da971faf4cbd51749172cd808, type: 3}
    trs: {fileID: 6640437764362887640, guid: 42c4364da971faf4cbd51749172cd808, type: 3}
    prefabIndex: 0
    preload: 0
  - prefab: {fileID: 4293007811972134029, guid: e061a82a216bcb6a698f20523242885a, type: 3}
    trs: {fileID: 4293007811972134025, guid: e061a82a216bcb6a698f20523242885a, type: 3}
    prefabIndex: 0
    preload: 0
  - prefab: {fileID: 4293007811972134029, guid: b9475ab2e3d55af428244ce99b5e49c0, type: 3}
    trs: {fileID: 4293007811972134025, guid: b9475ab2e3d55af428244ce99b5e49c0, type: 3}
    prefabIndex: 0
    preload: 0
  - prefab: {fileID: 4293007811972134029, guid: 544686e060a10c642bebec63884d8985, type: 3}
    trs: {fileID: 4293007811972134025, guid: 544686e060a10c642bebec63884d8985, type: 3}
    prefabIndex: 0
    preload: 0
  - prefab: {fileID: 7113511423602553893, guid: 641da07ebaa1e73468c8dc7f399649af, type: 3}
    trs: {fileID: 7113511423602553895, guid: 641da07ebaa1e73468c8dc7f399649af, type: 3}
    prefabIndex: 0
    preload: 0
  - prefab: {fileID: 6640437764362887644, guid: e8355f031330ae44f90a9811ff5c9223, type: 3}
    trs: {fileID: 6640437764362887640, guid: e8355f031330ae44f90a9811ff5c9223, type: 3}
    prefabIndex: 0
    preload: 0
  - prefab: {fileID: 4293007811972134029, guid: 7746bdb921134ae4e8ec94b850625307, type: 3}
    trs: {fileID: 4293007811972134025, guid: 7746bdb921134ae4e8ec94b850625307, type: 3}
    prefabIndex: 0
    preload: 0
  - prefab: {fileID: 8992678598204007288, guid: 0c0616ae740ebeb4bb8c654d7f6a9b04, type: 3}
    trs: {fileID: 8992678598204007295, guid: 0c0616ae740ebeb4bb8c654d7f6a9b04, type: 3}
    prefabIndex: 0
    preload: 0
  - prefab: {fileID: 555979685572059353, guid: 3dd49e1862129194e9717fe223954e9f, type: 3}
    trs: {fileID: 555979685572059358, guid: 3dd49e1862129194e9717fe223954e9f, type: 3}
    prefabIndex: 0
    preload: 0
  - prefab: {fileID: 637213929362804172, guid: 968d518a123d9b64792931c654f1cb65, type: 3}
    trs: {fileID: 637213929362804174, guid: 968d518a123d9b64792931c654f1cb65, type: 3}
    prefabIndex: 0
    preload: 0
  - prefab: {fileID: 555979685572059353, guid: ffa08825196ed3c40a2df260e89c47f6, type: 3}
    trs: {fileID: 555979685572059358, guid: ffa08825196ed3c40a2df260e89c47f6, type: 3}
    prefabIndex: 0
    preload: 0
  - prefab: {fileID: 6640437764362887644, guid: 1a9bfdbbe6a2eea4dac4f6e4e8e341c5, type: 3}
    trs: {fileID: 6640437764362887640, guid: 1a9bfdbbe6a2eea4dac4f6e4e8e341c5, type: 3}
    prefabIndex: 0
    preload: 0
  - prefab: {fileID: 4293007811972134029, guid: cdadcfaf45635294eb3f44ab85807097, type: 3}
    trs: {fileID: 4293007811972134025, guid: cdadcfaf45635294eb3f44ab85807097, type: 3}
    prefabIndex: 0
    preload: 0
  - prefab: {fileID: 637213929362804172, guid: f31d187bd0036bb46a2b2e6fe23469ca, type: 3}
    trs: {fileID: 637213929362804174, guid: f31d187bd0036bb46a2b2e6fe23469ca, type: 3}
    prefabIndex: 0
    preload: 0
  - prefab: {fileID: 637213929362804172, guid: 2220b067032e82d43b0c9c185681c62b, type: 3}
    trs: {fileID: 637213929362804174, guid: 2220b067032e82d43b0c9c185681c62b, type: 3}
    prefabIndex: 0
    preload: 0
  - prefab: {fileID: 637213929362804172, guid: 2d12c1f30ff070f4f8b46d7c9798d9af, type: 3}
    trs: {fileID: 637213929362804174, guid: 2d12c1f30ff070f4f8b46d7c9798d9af, type: 3}
    prefabIndex: 0
    preload: 0
  - prefab: {fileID: 4293007811972134029, guid: ab38626c360623d45abaccd94270c85a, type: 3}
    trs: {fileID: 4293007811972134025, guid: ab38626c360623d45abaccd94270c85a, type: 3}
    prefabIndex: 0
    preload: 0
  - prefab: {fileID: 6640437764362887644, guid: e42a8deee919cd84b8eb41a904741201, type: 3}
    trs: {fileID: 6640437764362887640, guid: e42a8deee919cd84b8eb41a904741201, type: 3}
    prefabIndex: 0
    preload: 0
  - prefab: {fileID: 8992678598204007288, guid: f87d6386ff217b948948eac35e44c9d0, type: 3}
    trs: {fileID: 8992678598204007295, guid: f87d6386ff217b948948eac35e44c9d0, type: 3}
    prefabIndex: 0
    preload: 0
